{"dishes": 
 [
     {
	 "id":0,"name":"dish0","desc":"desc0","price":0,
	 "photo": "http://icons.iconarchive.com/icons/dapino/callcenter-girls/128/callcenter-girls-blue-icon.png"
     },{
	 "id":1,"name":"dish1","desc":"desc1","price":100,
	 "photo":"http://icons.iconarchive.com/icons/icons-land/vista-love/128/TeddyBear-RedRibbon-icon.png"
    },{
	"id":2,"name":"dish2","desc":"desc2","price":200,
	"photo":"http://icons.iconarchive.com/icons/wackypixel/dogs-n-puppies/128/Puppy-1-icon.png"
    },{
	"id":3,"name":"dish3","desc":"desc3","price":300,
       "photo":"http://www.kfc.com/images/products/tenders.jpg"
    },{
	"id":10,"name":"dish10","desc":"desc10","price":1000,
	"photo":"http://www.kfc.com/images/products/hot-wings.jpg"
    },{
	"id":11,"name":"dish11","desc":"desc11","price":1100,
	"photo": "http://icons.iconarchive.com/icons/martin-berube/animal/128/dog-icon.png"
    },{
	"id":12,"name":"dish12","desc":"desc12","price":1200,
	"photo": "http://icons.iconarchive.com/icons/kzzu/i-love-you/128/Gift-Brown-bear-icon.png"
    },{
	"id":13,"name":"dish13","desc":"desc13","price":1300,
	"photo": "http://icons.iconarchive.com/icons/aha-soft/desktop-halloween/128/Halloween-icon.png"
    },{
	"id":20,"name":"dish20","desc":"desc20","price":2000,
	"photo":"http://www.kfc.com/images/products/or-chicken.jpg"
    },{
	"id":21,"name":"dish21","desc":"desc21","price":2100,
	"photo": "http://icons.iconarchive.com/icons/iconblock/remixed/128/puppy-icon.png"
    },{
	"id":22,"name":"dish22","desc":"desc22","price":2200,
	"photo": "http://icons.iconarchive.com/icons/wackypixel/dogs-n-puppies/128/Puppy-7-icon.png"
    },{
	"id":23,"name":"dish23","desc":"desc23","price":2300,
	"photo": "http://icons.iconarchive.com/icons/benoit-bender/a-dogs-life/128/Puppy-Games-icon.png"
    },{
	"id":24,"name":"dish23","desc":"desc23","price":2300,
	"photo": "http://icons.iconarchive.com/icons/benoit-bender/a-dogs-life/128/Puppy-Games-icon.png"
    }

 ]
}
